[
  {
    "Name": "Post-graduate",
    "Course":"Computing",
    "Module": {
      "Learning_outcomes":["LO1", "LO2", "LO3"],
      "Assignment":["CW1", "CW2", "CW3"],
      "Volume":["10 Weekly Tasks", "Portfolio", "Exam"],
      "weights":["35%", "35%", "30%"],
      "hours": ["1","3"],
    }
  },
  {
    "Name": "Post-Graduate",
    "Course":"Big Data",
    "Module": {
    "Learning_outcomes":["LO1", "LO2"],
    "Assignment":["CW1", "CW2"],
    "Volume":["1000 words", "4000 words"],
    "weights":["20%", "80%"],
    "hours": ["1","3"]

    }
  },
  {
    "Name": "Research",
    "Course":"Data Mining",
    "Module": {
      "Learning_outcomes":["LO1", "LO2"],
      "Assignment":["CW1", "CW2"],
      "Volume":["1000 words", "4000 words"],
      "weights":["20%", "80%"],
      "hours": ["1","3"]
    }
  }
]
